{"hash":"f79a9e6c9467a881cddc09e0e6a1b8254752d0cb","data":{"posts":{"totalCount":19,"pageInfo":{"totalPages":4,"currentPage":1},"edges":[{"node":{"id":"e09e1dd83465b2048d951ebe578e4d0f","title":"Vue.js and Sitecore MVC","date":"October 3, 2019","description":"How to develop Vue.js and Sitecore MVC applications","timeToRead":2,"path":"/vuejs-sitecore-mvc/"}},{"node":{"id":"78dbc55df091955f333b18033cfaf3ab","title":"Vue.js, Sitecore MVC and the Experience Editor","date":"September 18, 2019","description":"Vue.js, Sitecore MVC and the Experience Editor","timeToRead":2,"path":"/vuejs-sitecore-mvc-and-experience-editor/"}},{"node":{"id":"93ea52aa57b69d20878b72365fb40169","title":"7 tips to get started with Sitecore Commerce 9","date":"March 29, 2018","description":"7 tips to get started with Sitecore Commerce 9","timeToRead":2,"path":"/7-tips-to-get-started-with-sitecore-commerce-9/"}},{"node":{"id":"0bf9c1d77410438fec7b2de8fc284a0b","title":"Managing Sitecore Content with Continuous Delivery","date":"July 18, 2017","description":"Simple Sitecore Content Feature Toggle for Continuous Delivery","timeToRead":2,"path":"/managing-sitecore-content-with-continuous-delivery/"}},{"node":{"id":"e1d6e747a9143e25ae0caab246fba9d5","title":"Sitecore Item Paths in SQL Queries","date":"September 3, 2016","description":"Sitecore Item Paths in SQL Queries","timeToRead":1,"path":"/sitecore-item-paths-in-sql-queries/"}}]}},"context":{}}