{"hash":"cd7290b418fbac406a8666020b28b3cb11b8be16","data":{"tag":{"title":"sitecore","belongsTo":{"totalCount":14,"pageInfo":{"totalPages":3,"currentPage":3},"edges":[{"node":{"title":"Sitecore 7.2 rev.150408 Clones Performance Issue","timeToRead":1,"date":"October 1, 2015","path":"/sitecore-7-2-150408-clones-performance-issue/","description":"Performance issue after upgrading to Sitecore 7.2 rev.150408","tags":[{"title":"sitecore"},{"title":"debugging"}]}},{"node":{"title":"Programmatically Adding Sitecore MVC Renderings with Caching","timeToRead":2,"date":"August 26, 2015","path":"/sitecore-mvc-programmatically-add-renderings-with-caching/","description":"Sitecore helper method to add a rendering within a view with caching","tags":[{"title":"sitecore"},{"title":"mvc"}]}},{"node":{"title":"Security Based Publishing Restrictions in Sitecore","timeToRead":2,"date":"August 19, 2015","path":"/security-based-publishing-restrictions-in-sitecore/","description":"Providing publishing based on item security","tags":[{"title":"sitecore"}]}},{"node":{"title":"Find Sitecore users with profile setting","timeToRead":2,"date":"July 28, 2015","path":"/find-sitecore-users-with-profile-setting/","description":"Find Sitecore users with profile setting","tags":[{"title":"sitecore"},{"title":"sql"},{"title":"debugging"}]}}]}}},"context":{}}