{"hash":"f79a9e6c9467a881cddc09e0e6a1b8254752d0cb","data":{"posts":{"totalCount":19,"pageInfo":{"totalPages":4,"currentPage":3},"edges":[{"node":{"id":"1e52f7e481a5d03bb5aebb64b145b970","title":"Sync Sitecore Logs to AWS CloudWatch Logs","description":"Sync Sitecore log files to AWS CloudWatch logs","date":"December 16, 2015","timeToRead":3,"path":"/sync-sitecore-logs-to-cloudwatch-logs/"}},{"node":{"id":"a18a76d3ca4d3c786dfc72f075b7f6a1","title":"Attach Volume to EC2 instance in Auto Scaling Group","description":"Attaching a volume to an EC2 instance in an Auto Scaling Group using Powershell and CloudFormation","date":"November 28, 2015","timeToRead":1,"path":"/aws-attach-volume-autoscaling-group-cloudformation/"}},{"node":{"id":"4031193ecb6385dbee67869b9a2f45c1","title":"AWS: Bulk EC2 Password retrieval with Powershell","description":"Using Powershell to describe all EC2 instances including administrator password","date":"November 12, 2015","timeToRead":1,"path":"/aws-bulk-password-retrieval/"}},{"node":{"id":"d8cb17b5da7fbd75d13ad8e23c8545a2","title":"AWS: EC2 Password Retrieval of Windows AMI instance","description":"Enabling administrator password retrieval of an EC2 instance created from a custom Windows AMI","date":"November 5, 2015","timeToRead":1,"path":"/aws-retrieve-admin-password-from-windows-ami/"}},{"node":{"id":"54f2918bc02b17683c0e637d6a4e4462","title":"Sitecore 7.2 rev.150408 Clones Performance Issue","description":"Performance issue after upgrading to Sitecore 7.2 rev.150408","date":"October 1, 2015","timeToRead":1,"path":"/sitecore-7-2-150408-clones-performance-issue/"}}]}},"context":{}}