{"hash":"a5f4f482c6a4a22d5bf30a578e028699128c226a","data":{"posts":{"totalCount":19,"pageInfo":{"totalPages":4,"currentPage":2},"edges":[{"node":{"id":"49e950ce4a3338105df22bbb701650f6","title":"Empty Sitecore Recycle Bin Periodically","description":"Empty Sitecore Recycle Bin Periodically","date":"July 26, 2016","timeToRead":2,"path":"/empty-sitecore-recycle-bin-periodically/"}},{"node":{"id":"55ad93751d33f687248dc9d26ab5bf39","title":"Dynamic HTML Tags in MVC Razor","description":"Html.BeginForm for any HTML Tag","date":"June 1, 2016","timeToRead":2,"path":"/dynamic-html-tags-in-mvc-razor/"}},{"node":{"id":"72eb2446aa7035bcd8b5cceb5d10f5b0","title":"Sitecore Experience Analytics Cache Tuning","description":"","date":"April 29, 2016","timeToRead":1,"path":"/sitecore-experience-analytics-cache-tuning/"}},{"node":{"id":"0c857d23fd2f8401f18748c3d8857061","title":"Developers Guide to Sitecore 8.1 Device Detection","description":"Introduction to Device detection in Sitecore 8.1 and how to extend it","date":"March 9, 2016","timeToRead":3,"path":"/sitecore-8-1-device-detection/"}},{"node":{"id":"8c394940b8ad44327d2005974c943db0","title":"Analyse Sitecore logs in AWS CloudWatch Logs","description":"Analyse Sitecore logs in AWS CloudWatch Logs with Sitecore Log Analyzer","date":"January 12, 2016","timeToRead":2,"path":"/analyse-sitecore-logs-in-aws-cloudwatch-logs/"}}]}},"context":{}}