{"hash":"a5f4f482c6a4a22d5bf30a578e028699128c226a","data":{"posts":{"totalCount":19,"pageInfo":{"totalPages":4,"currentPage":4},"edges":[{"node":{"id":"53f5950a3ea3d65731d8e09cc25bc8db","title":"Programmatically Adding Sitecore MVC Renderings with Caching","description":"Sitecore helper method to add a rendering within a view with caching","date":"August 26, 2015","timeToRead":2,"path":"/sitecore-mvc-programmatically-add-renderings-with-caching/"}},{"node":{"id":"12ea11a2d1b951ed94e3eabd7c054c65","title":"Security Based Publishing Restrictions in Sitecore","description":"Providing publishing based on item security","date":"August 19, 2015","timeToRead":2,"path":"/security-based-publishing-restrictions-in-sitecore/"}},{"node":{"id":"57acfd75dab420fc2628255d42a46543","title":"Block requests with FiddlerCore","description":"Using AutoResponder in FiddlerCore to block requests","date":"August 7, 2015","timeToRead":1,"path":"/block-requests-with-fiddlercore/"}},{"node":{"id":"ec9b5cfe142a20055a93ab0c1f30363e","title":"Find Sitecore users with profile setting","description":"Find Sitecore users with profile setting","date":"July 28, 2015","timeToRead":2,"path":"/find-sitecore-users-with-profile-setting/"}}]}},"context":{}}