{"hash":"a5f4f482c6a4a22d5bf30a578e028699128c226a","data":{"posts":{"totalCount":19,"pageInfo":{"totalPages":4,"currentPage":1},"edges":[{"node":{"id":"7174848390e017bf5970ac55a6c3173c","title":"Vue.js and Sitecore MVC","description":"How to develop Vue.js and Sitecore MVC applications","date":"October 3, 2019","timeToRead":2,"path":"/vuejs-sitecore-mvc/"}},{"node":{"id":"82e30fad2569fd3b15272761d3c02b4a","title":"Vue.js, Sitecore MVC and the Experience Editor","description":"Vue.js, Sitecore MVC and the Experience Editor","date":"September 18, 2019","timeToRead":2,"path":"/vuejs-sitecore-mvc-and-experience-editor/"}},{"node":{"id":"2df93c72aac17240a1e7117b2ff5e6de","title":"7 tips to get started with Sitecore Commerce 9","description":"7 tips to get started with Sitecore Commerce 9","date":"March 29, 2018","timeToRead":2,"path":"/7-tips-to-get-started-with-sitecore-commerce-9/"}},{"node":{"id":"bac9cba0d9ce612bbc7802ce5573ae32","title":"Managing Sitecore Content with Continuous Delivery","description":"Simple Sitecore Content Feature Toggle for Continuous Delivery","date":"July 18, 2017","timeToRead":2,"path":"/managing-sitecore-content-with-continuous-delivery/"}},{"node":{"id":"a4dbdcb4e21f8a7054da406060a74d8b","title":"Sitecore Item Paths in SQL Queries","description":"Sitecore Item Paths in SQL Queries","date":"September 3, 2016","timeToRead":1,"path":"/sitecore-item-paths-in-sql-queries/"}}]}},"context":{}}